{
  "project_info": {
    "project_number": "729497227201",
    "project_id": "fir-flutter-codelab-af7c8",
    "storage_bucket": "fir-flutter-codelab-af7c8.appspot.com"
  },
  "client": [
    {
      "client_info": {
        "mobilesdk_app_id": "1:729497227201:android:7b31a13358c1199672a940",
        "android_client_info": {
          "package_name": "com.example.gtk_flutter"
        }
      },
      "oauth_client": [
        {
          "client_id": "729497227201-c3b0diurlqhcebdb0e366354dfudsn8s.apps.googleusercontent.com",
          "client_type": 3
        }
      ],
      "api_key": [
        {
          "current_key": "AIzaSyDA4pHaO39rh0SSRUt3n2ay3lm-glIHZdc"
        }
      ],
      "services": {
        "appinvite_service": {
          "other_platform_oauth_client": [
            {
              "client_id": "729497227201-c3b0diurlqhcebdb0e366354dfudsn8s.apps.googleusercontent.com",
              "client_type": 3
            },
            {
              "client_id": "729497227201-telhrjkre9u11s3tl5mud93nc8e9qb61.apps.googleusercontent.com",
              "client_type": 2,
              "ios_info": {
                "bundle_id": "com.example.gtkFlutter"
              }
            }
          ]
        }
      }
    }
  ],
  "configuration_version": "1"
}